[
    {
        "fields": {
            "code": "WA",
            "name": "Washington"
        },
        "model": "data.refstate",
        "pk": 1
    },
    {
        "fields": {
            "code": "WI",
            "name": "Wisconsin"
        },
        "model": "data.refstate",
        "pk": 2
    },
    {
        "fields": {
            "code": "WV",
            "name": "West Virginia"
        },
        "model": "data.refstate",
        "pk": 3
    },
    {
        "fields": {
            "code": "FL",
            "name": "Florida"
        },
        "model": "data.refstate",
        "pk": 4
    },
    {
        "fields": {
            "code": "FM",
            "name": "Federated States Of Micronesia"
        },
        "model": "data.refstate",
        "pk": 5
    },
    {
        "fields": {
            "code": "WY",
            "name": "Wyoming"
        },
        "model": "data.refstate",
        "pk": 6
    },
    {
        "fields": {
            "code": "NH",
            "name": "New Hampshire"
        },
        "model": "data.refstate",
        "pk": 7
    },
    {
        "fields": {
            "code": "NJ",
            "name": "New Jersey"
        },
        "model": "data.refstate",
        "pk": 8
    },
    {
        "fields": {
            "code": "NM",
            "name": "New Mexico"
        },
        "model": "data.refstate",
        "pk": 9
    },
    {
        "fields": {
            "code": "NC",
            "name": "North Carolina"
        },
        "model": "data.refstate",
        "pk": 10
    },
    {
        "fields": {
            "code": "ND",
            "name": "North Dakota"
        },
        "model": "data.refstate",
        "pk": 11
    },
    {
        "fields": {
            "code": "NE",
            "name": "Nebraska"
        },
        "model": "data.refstate",
        "pk": 12
    },
    {
        "fields": {
            "code": "NY",
            "name": "New York"
        },
        "model": "data.refstate",
        "pk": 13
    },
    {
        "fields": {
            "code": "RI",
            "name": "Rhode Island"
        },
        "model": "data.refstate",
        "pk": 14
    },
    {
        "fields": {
            "code": "NV",
            "name": "Nevada"
        },
        "model": "data.refstate",
        "pk": 15
    },
    {
        "fields": {
            "code": "GU",
            "name": "Guam"
        },
        "model": "data.refstate",
        "pk": 16
    },
    {
        "fields": {
            "code": "CO",
            "name": "Colorado"
        },
        "model": "data.refstate",
        "pk": 17
    },
    {
        "fields": {
            "code": "CA",
            "name": "California"
        },
        "model": "data.refstate",
        "pk": 18
    },
    {
        "fields": {
            "code": "GA",
            "name": "Georgia"
        },
        "model": "data.refstate",
        "pk": 19
    },
    {
        "fields": {
            "code": "CT",
            "name": "Connecticut"
        },
        "model": "data.refstate",
        "pk": 20
    },
    {
        "fields": {
            "code": "OK",
            "name": "Oklahoma"
        },
        "model": "data.refstate",
        "pk": 21
    },
    {
        "fields": {
            "code": "OH",
            "name": "Ohio"
        },
        "model": "data.refstate",
        "pk": 22
    },
    {
        "fields": {
            "code": "KS",
            "name": "Kansas"
        },
        "model": "data.refstate",
        "pk": 23
    },
    {
        "fields": {
            "code": "SC",
            "name": "South Carolina"
        },
        "model": "data.refstate",
        "pk": 24
    },
    {
        "fields": {
            "code": "KY",
            "name": "Kentucky"
        },
        "model": "data.refstate",
        "pk": 25
    },
    {
        "fields": {
            "code": "OR",
            "name": "Oregon"
        },
        "model": "data.refstate",
        "pk": 26
    },
    {
        "fields": {
            "code": "SD",
            "name": "South Dakota"
        },
        "model": "data.refstate",
        "pk": 27
    },
    {
        "fields": {
            "code": "DE",
            "name": "Delaware"
        },
        "model": "data.refstate",
        "pk": 28
    },
    {
        "fields": {
            "code": "DC",
            "name": "District Of Columbia"
        },
        "model": "data.refstate",
        "pk": 29
    },
    {
        "fields": {
            "code": "HI",
            "name": "Hawaii"
        },
        "model": "data.refstate",
        "pk": 30
    },
    {
        "fields": {
            "code": "PR",
            "name": "Puerto Rico"
        },
        "model": "data.refstate",
        "pk": 31
    },
    {
        "fields": {
            "code": "PW",
            "name": "Palau"
        },
        "model": "data.refstate",
        "pk": 32
    },
    {
        "fields": {
            "code": "TX",
            "name": "Texas"
        },
        "model": "data.refstate",
        "pk": 33
    },
    {
        "fields": {
            "code": "LA",
            "name": "Louisiana"
        },
        "model": "data.refstate",
        "pk": 34
    },
    {
        "fields": {
            "code": "TN",
            "name": "Tennessee"
        },
        "model": "data.refstate",
        "pk": 35
    },
    {
        "fields": {
            "code": "PA",
            "name": "Pennsylvania"
        },
        "model": "data.refstate",
        "pk": 36
    },
    {
        "fields": {
            "code": "VA",
            "name": "Virginia"
        },
        "model": "data.refstate",
        "pk": 37
    },
    {
        "fields": {
            "code": "VI",
            "name": "Virgin Islands"
        },
        "model": "data.refstate",
        "pk": 38
    },
    {
        "fields": {
            "code": "AK",
            "name": "Alaska"
        },
        "model": "data.refstate",
        "pk": 39
    },
    {
        "fields": {
            "code": "AL",
            "name": "Alabama"
        },
        "model": "data.refstate",
        "pk": 40
    },
    {
        "fields": {
            "code": "AS",
            "name": "American Samoa"
        },
        "model": "data.refstate",
        "pk": 41
    },
    {
        "fields": {
            "code": "AR",
            "name": "Arkansas"
        },
        "model": "data.refstate",
        "pk": 42
    },
    {
        "fields": {
            "code": "VT",
            "name": "Vermont"
        },
        "model": "data.refstate",
        "pk": 43
    },
    {
        "fields": {
            "code": "IL",
            "name": "Illinois"
        },
        "model": "data.refstate",
        "pk": 44
    },
    {
        "fields": {
            "code": "IN",
            "name": "Indiana"
        },
        "model": "data.refstate",
        "pk": 45
    },
    {
        "fields": {
            "code": "IA",
            "name": "Iowa"
        },
        "model": "data.refstate",
        "pk": 46
    },
    {
        "fields": {
            "code": "AZ",
            "name": "Arizona"
        },
        "model": "data.refstate",
        "pk": 47
    },
    {
        "fields": {
            "code": "ID",
            "name": "Idaho"
        },
        "model": "data.refstate",
        "pk": 48
    },
    {
        "fields": {
            "code": "ME",
            "name": "Maine"
        },
        "model": "data.refstate",
        "pk": 49
    },
    {
        "fields": {
            "code": "MD",
            "name": "Maryland"
        },
        "model": "data.refstate",
        "pk": 50
    },
    {
        "fields": {
            "code": "MA",
            "name": "Massachusetts"
        },
        "model": "data.refstate",
        "pk": 51
    },
    {
        "fields": {
            "code": "UT",
            "name": "Utah"
        },
        "model": "data.refstate",
        "pk": 52
    },
    {
        "fields": {
            "code": "MO",
            "name": "Missouri"
        },
        "model": "data.refstate",
        "pk": 53
    },
    {
        "fields": {
            "code": "MN",
            "name": "Minnesota"
        },
        "model": "data.refstate",
        "pk": 54
    },
    {
        "fields": {
            "code": "MI",
            "name": "Michigan"
        },
        "model": "data.refstate",
        "pk": 55
    },
    {
        "fields": {
            "code": "MH",
            "name": "Marshall Islands"
        },
        "model": "data.refstate",
        "pk": 56
    },
    {
        "fields": {
            "code": "MT",
            "name": "Montana"
        },
        "model": "data.refstate",
        "pk": 57
    },
    {
        "fields": {
            "code": "MP",
            "name": "Northern Mariana Islands"
        },
        "model": "data.refstate",
        "pk": 58
    },
    {
        "fields": {
            "code": "MS",
            "name": "Mississippi"
        },
        "model": "data.refstate",
        "pk": 59
    }
]